[
{
  "directory": "/home/jaffee/proj/univ/sem1/gims/lab7/build",
  "command": "/usr/bin/c++ -I/home/jaffee/proj/univ/sem1/gims/lab7/build -I/home/jaffee/proj/univ/sem1/gims/lab7 -I/home/jaffee/proj/univ/sem1/gims/lab7/include -I/usr/include/libdrm -std=gnu++1z -o CMakeFiles/lab7.dir/src/main.cpp.o -c /home/jaffee/proj/univ/sem1/gims/lab7/src/main.cpp",
  "file": "/home/jaffee/proj/univ/sem1/gims/lab7/src/main.cpp"
}
]
