[
  {
    "directory": "/home/jaffee/proj/univ/sem1/imod/build",
    "command": "c++  -Ilab1/rosenblat@exe -Ilab1 -I../lab1 -I/usr/include/openblas -fdiagnostics-color=always -pipe -D_FILE_OFFSET_BITS=64 -Wall -Winvalid-pch -Wnon-virtual-dtor -std=c++14 -O0 -g -MMD -MQ 'lab1/rosenblat@exe/rosenblat.cpp.o' -MF 'lab1/rosenblat@exe/rosenblat.cpp.o.d' -o 'lab1/rosenblat@exe/rosenblat.cpp.o' -c ../lab1/rosenblat.cpp",
    "file": "../lab1/rosenblat.cpp"
  },
  {
    "directory": "/home/jaffee/proj/univ/sem1/imod/build",
    "command": "c++  -Ilab2/train@exe -Ilab2 -I../lab2 -I../subprojects/rang-2.0/include -I/usr/include/python2.7 -fdiagnostics-color=always -pipe -D_FILE_OFFSET_BITS=64 -Wall -Winvalid-pch -Wnon-virtual-dtor -std=c++14 -O0 -g -MMD -MQ 'lab2/train@exe/train.cpp.o' -MF 'lab2/train@exe/train.cpp.o.d' -o 'lab2/train@exe/train.cpp.o' -c ../lab2/train.cpp",
    "file": "../lab2/train.cpp"
  }
]
