[
{
  "directory": "/home/jaffee/proj/univ/sem1/gims/lab5/build",
  "command": "/usr/bin/c++ -DQT_CORE_LIB -DQT_GUI_LIB -DQT_NO_DEBUG -DQT_WIDGETS_LIB -I/home/jaffee/proj/univ/sem1/gims/lab5/build -I/home/jaffee/proj/univ/sem1/gims/lab5 -I/home/jaffee/proj/univ/sem1/gims/lab5/include -isystem /usr/include/qt5 -isystem /usr/include/qt5/QtCore -isystem /usr/lib64/qt5/./mkspecs/linux-g++ -isystem /usr/include/qt5/QtWidgets -isystem /usr/include/qt5/QtGui -fPIC -std=gnu++1z -o CMakeFiles/lab5.dir/src/main.cpp.o -c /home/jaffee/proj/univ/sem1/gims/lab5/src/main.cpp",
  "file": "/home/jaffee/proj/univ/sem1/gims/lab5/src/main.cpp"
},

{
  "directory": "/home/jaffee/proj/univ/sem1/gims/lab5/build",
  "command": "/usr/bin/c++ -DQT_CORE_LIB -DQT_GUI_LIB -DQT_NO_DEBUG -DQT_WIDGETS_LIB -I/home/jaffee/proj/univ/sem1/gims/lab5/build -I/home/jaffee/proj/univ/sem1/gims/lab5 -I/home/jaffee/proj/univ/sem1/gims/lab5/include -isystem /usr/include/qt5 -isystem /usr/include/qt5/QtCore -isystem /usr/lib64/qt5/./mkspecs/linux-g++ -isystem /usr/include/qt5/QtWidgets -isystem /usr/include/qt5/QtGui -fPIC -std=gnu++1z -o CMakeFiles/lab5.dir/include/moc_main.cpp.o -c /home/jaffee/proj/univ/sem1/gims/lab5/build/include/moc_main.cpp",
  "file": "/home/jaffee/proj/univ/sem1/gims/lab5/build/include/moc_main.cpp"
},

{
  "directory": "/home/jaffee/proj/univ/sem1/gims/lab5/build",
  "command": "/usr/bin/c++ -DQT_CORE_LIB -DQT_GUI_LIB -DQT_NO_DEBUG -DQT_WIDGETS_LIB -I/home/jaffee/proj/univ/sem1/gims/lab5/build -I/home/jaffee/proj/univ/sem1/gims/lab5 -I/home/jaffee/proj/univ/sem1/gims/lab5/include -isystem /usr/include/qt5 -isystem /usr/include/qt5/QtCore -isystem /usr/lib64/qt5/./mkspecs/linux-g++ -isystem /usr/include/qt5/QtWidgets -isystem /usr/include/qt5/QtGui -fPIC -std=gnu++1z",
  "file": "/home/jaffee/proj/univ/sem1/gims/lab5/include/main.hpp"
},

{
  "directory": "/home/jaffee/proj/univ/sem1/gims/lab5/build",
  "command": "/usr/bin/c++ -DQT_CORE_LIB -DQT_GUI_LIB -DQT_NO_DEBUG -DQT_WIDGETS_LIB -I/home/jaffee/proj/univ/sem1/gims/lab5/build -I/home/jaffee/proj/univ/sem1/gims/lab5 -I/home/jaffee/proj/univ/sem1/gims/lab5/include -isystem /usr/include/qt5 -isystem /usr/include/qt5/QtCore -isystem /usr/lib64/qt5/./mkspecs/linux-g++ -isystem /usr/include/qt5/QtWidgets -isystem /usr/include/qt5/QtGui -fPIC -std=gnu++1z",
  "file": "/home/jaffee/proj/univ/sem1/gims/lab5/build/ui_main.h"
}
]
