[
{
  "directory": "/home/jaffee/proj/univ/sem1/sks/build",
  "command": "/usr/bin/clang++   -I../lab1/include  -g   -std=gnu++14 -o lab1/CMakeFiles/lab1.dir/src/main.cpp.o -c /home/jaffee/proj/univ/sem1/sks/lab1/src/main.cpp",
  "file": "/home/jaffee/proj/univ/sem1/sks/lab1/src/main.cpp"
}
]